Temperature Dissolved Oxygen x (TDOx) — tdox • LakeMonitoR
…
tdox_3 <- tdox(data = data
               , col_date = col_date
               , col_depth = col_depth
               , col_temp = col_temp
               , col_do = col_do
               , do_x_val = do_x_val)

tdox_3

#> # A tibble: 104 x 6
#>    TimeFrame_Name TimeFrame_Value TDO_x_value   min  mean   max
#>    <chr>          <chr>                 <dbl> <dbl> <dbl> <dbl>
#>  1 Year           2018                      3  50.9  59.9  64.2
#>  2 Date           2018-07-02                3  52.6  52.6  52.6
#>  3 Date           2018-07-03                3  53.5  53.5  53.5
#>  4 Date           2018-07-04                3  53.7  53.7  53.7
#>  5 Date           2018-07-05                3  54.4  54.4  54.4
#>  6 Date           2018-07-06                3  54.8  54.8  54.8
#>  7 Date           2018-07-07                3  55.4  55.4  55.4
#>  8 Date           2018-07-08                3  55.7  55.7  55.7
#>  9 Date           2018-07-09                3  56.4  56.4  56.4
#> 10 Date           2018-07-10                3  56.8  56.8  56.8
#> # … with 94 more rows
…
